Getting Started • xportr
…
An appropriate data set label must be supplied as well. Currently, the adsl data set has the label ADSL, but it needs the label Subject-Level Analysis Dataset to be compliant with most clinical data set validator application. Here we make use of the data_spec object to supply the apropriate label for the adsl data set.

Option1

capture.output(str(adsl))[45]
  [1] NA

adsl_df_lbl <- adsl %>% xportr_df_label(data_spec, "ADSL")
adsl %>% xportr_varnames("message")
  
  Variable Name Validation passed! No renaming necessary.

  -- 0 of 23 (0%) variables were renamed --
  
  # A tibble: 24 x 23
     STUDYID  SITEID USUBJID SUBJID COUNTRY ACOUNTRY   AGE AGEU  SEX   RACE  RACEN
     <chr>     <dbl> <chr>    <dbl> <chr>   <chr>    <dbl> <chr> <chr> <chr> <dbl>
   1 mid9876~ 214356 987650~      1 USA     UNITED ~    35 YEARS M     ASIAN     2
   2 mid9876~ 214356 987650~      2 USA     UNITED ~    62 YEARS M     WHITE     1
   3 mid9876~ 214356 987650~      3 USA     UNITED ~    27 YEARS F     ASIAN     2
   4 mid9876~ 214356 987650~      4 USA     UNITED ~    42 YEARS M     ASIAN     2
   5 mid9876~ 214356 987650~      5 USA     UNITED ~    59 YEARS F     WHITE     1
   6 mid9876~ 214356 987650~      6 USA     UNITED ~    28 YEARS M     WHITE     1
   7 mid9876~ 214356 987650~      7 USA     UNITED ~    31 YEARS F     ASIAN     2
   8 mid9876~ 214356 987650~      8 USA     UNITED ~    43 YEARS F     WHITE     1
   9 mid9876~ 214356 987650~      9 USA     UNITED ~    35 YEARS M     ASIAN     2
  10 mid9876~ 214356 987650~     10 USA     UNITED ~    62 YEARS M     WHITE     1
  # ... with 14 more rows, and 12 more variables: WEIGHTBL <dbl>, TRT01A <chr>,
  #   TRT01AN <dbl>, SAFFL <chr>, SCRDT <date>, RANDDT <date>, TRTSDT <date>,
  #   TRTSTM <time>, TRTEDT <date>, TRTETM <time>, BRTHDT <date>, BRTHDTC <dbl>
…
